91.200.16.102
192.172.226.11
140.192.218.138
128.223.157.13
128.8.126.45
128.139.208.6
204.235.64.14
41.242.96.34
203.178.143.118
46.20.241.26
217.31.202.21
139.18.1.244
200.94.183.154
113.197.9.170
192.172.226.247
149.20.4.11
192.43.244.202
96.127.255.96
128.232.97.9
200.160.7.159
192.42.115.98
193.0.0.168
213.46.228.229
50.138.170.121
146.115.69.170
150.183.95.135
119.40.82.245
193.1.193.136
128.223.157.8
200.159.255.29
213.254.227.26
192.107.171.130
96.29.241.159
131.159.14.83
91.184.204.124
203.181.248.51
128.39.36.95
130.206.158.142
174.65.138.129
200.27.115.62
149.20.54.219
202.158.196.137
78.41.116.2
130.60.40.26
